[api-updater (non-obsolete-error-filter)] 02.07.2021 9:40:42 : Starting E:/Programms/Unity/2020.3.11f1/Editor/Data/Tools/ScriptUpdater/APIUpdater.NonObsoleteApiUpdaterDetector.exe
[api-updater (non-obsolete-error-filter)] 
----------------------------------
jit/startup time      : 791,6207ms
moved types parse time: 105ms
candidates parse time : 1ms
C# parse time         : 796ms
candidates check time : 44ms
console write time    : 0ms

[api-updater (non-obsolete-error-filter)] 02.07.2021 10:37:32 : Starting E:/Programms/Unity/2020.3.11f1/Editor/Data/Tools/ScriptUpdater/APIUpdater.NonObsoleteApiUpdaterDetector.exe
[api-updater (non-obsolete-error-filter)] 
----------------------------------
jit/startup time      : 930,3179ms
moved types parse time: 76ms
candidates parse time : 1ms
C# parse time         : 795ms
candidates check time : 74ms
console write time    : 0ms

[api-updater (non-obsolete-error-filter)] 09.07.2021 8:16:18 : Starting E:/Programms/Unity/2020.3.11f1/Editor/Data/Tools/ScriptUpdater/APIUpdater.NonObsoleteApiUpdaterDetector.exe
[api-updater (non-obsolete-error-filter)] 
----------------------------------
jit/startup time      : 1037,9167ms
moved types parse time: 83ms
candidates parse time : 1ms
C# parse time         : 833ms
candidates check time : 61ms
console write time    : 1ms

[api-updater (non-obsolete-error-filter)] 09.07.2021 19:16:13 : Starting E:/Programms/Unity/2020.3.11f1/Editor/Data/Tools/ScriptUpdater/APIUpdater.NonObsoleteApiUpdaterDetector.exe
[api-updater (non-obsolete-error-filter)] 
----------------------------------
jit/startup time      : 1189,4349ms
moved types parse time: 83ms
candidates parse time : 2ms
C# parse time         : 812ms
candidates check time : 64ms
console write time    : 1ms

